<?xml version="1.0" standalone="no"?><!DOCTYPE svg PUBLIC "-//W3C//DTD SVG 1.1//EN" "http://www.w3.org/Graphics/SVG/1.1/DTD/svg11.dtd">
<svg class="icon" width="200px" height="200.00px" viewBox="0 0 1024 1024" version="1.1" xmlns="http://www.w3.org/2000/svg">
	<path stroke='currentColor' stroke-width="10" d='m 939.23982,149.91597 a 64.270168,65.07941 0 0 1 0,91.83679 L 573.32534,612.16118 a 61.023069,61.791426 0 0 1 -28.60807,16.43993 l -149.53451,37.81181 a 33.702649,34.127008 0 0 1 -40.75668,-41.26987 l 37.39761,-151.53071 c 2.74325,-10.88437 8.28571,-20.80501 16.06755,-28.79821 L 773.8617,74.235645 c 24.18529,-24.546501 66.45356,-24.489811 90.63885,0 z m -84.14466,80.89575 36.61385,-37.18824 -72.44391,-69.10435 -34.59839,34.97734 z M 528.53777,562.50129 807.67632,279.05438 737.1359,207.62576 455.47804,492.83004 432.86031,586.76435 Z M 836.84423,452.35382 c 18.47488,0 33.59068,15.30613 33.59068,34.01363 V 849.633 c 0,62.35832 -50.38603,113.37876 -111.96894,113.37876 H 174.21208 c -61.58292,0 -111.968943,-51.02044 -111.968943,-113.37876 V 258.02262 c 0,-62.35832 50.386023,-113.37876 111.968943,-113.37876 H 516.1652 c 18.47487,0 33.59068,15.30614 33.59068,34.01363 0,18.70749 -15.11581,34.01363 -33.59068,34.01363 H 174.21208 a 45.347419,45.918399 0 0 0 -44.78758,45.3515 V 849.633 c 0,24.5465 20.5463,45.35151 44.78758,45.35151 H 758.46597 A 45.347419,45.918399 0 0 0 803.25355,849.633 V 486.36745 c 0,-18.7075 15.11581,-34.01363 33.59068,-34.01363 z' />
</svg>