<?xml version="1.0" standalone="no"?><!DOCTYPE svg PUBLIC "-//W3C//DTD SVG 1.1//EN" "http://www.w3.org/Graphics/SVG/1.1/DTD/svg11.dtd">
<svg class="icon" width="200px" height="200.00px" viewBox="0 0 1024 1024" version="1.1" xmlns="http://www.w3.org/2000/svg">
	<path d='M128 789.333333C128 871.68 194.986667 938.666667 277.333333 938.666667s149.333333-66.986667 149.333334-149.333334c0-67.413333-45.226667-123.861333-106.666667-142.378666V377.045333C381.44 358.528 426.666667 302.08 426.666667 234.666667 426.666667 152.32 359.68 85.333333 277.333333 85.333333S128 152.32 128 234.666667c0 67.413333 45.226667 123.861333 106.666667 142.378666v269.909334C173.226667 665.472 128 721.92 128 789.333333z m213.333333 0c0 35.285333-28.714667 64-64 64S213.333333 824.618667 213.333333 789.333333 242.048 725.333333 277.333333 725.333333s64 28.714667 64 64z m-128-554.666666C213.333333 199.381333 242.048 170.666667 277.333333 170.666667S341.333333 199.381333 341.333333 234.666667 312.618667 298.666667 277.333333 298.666667 213.333333 269.952 213.333333 234.666667z m682.666667 554.666666c0-67.413333-45.226667-123.861333-106.666667-142.378666V341.333333c0-64.384-40.917333-157.141333-149.333333-168.405333V85.333333l-170.666667 128 170.666667 128V258.346667c57.514667 11.008 63.701333 65.237333 64 82.986666v305.621334c-61.44 18.517333-106.666667 74.965333-106.666667 142.378666 0 82.346667 66.986667 149.333333 149.333334 149.333334s149.333333-66.986667 149.333333-149.333334zM746.666667 853.333333c-35.285333 0-64-28.714667-64-64s28.714667-64 64-64 64 28.714667 64 64-28.714667 64-64 64z'  />
</svg>