<?xml version="1.0" standalone="no"?><!DOCTYPE svg PUBLIC "-//W3C//DTD SVG 1.1//EN" "http://www.w3.org/Graphics/SVG/1.1/DTD/svg11.dtd">
<svg class="icon" width="200px" height="200.00px" viewBox="0 0 1024 1024" version="1.1" xmlns="http://www.w3.org/2000/svg">
	<path d='M0 512a512 512 0 1 1 1024 0 512 512 0 0 1-1024 0z m771.6864-161.792L450.3552 671.5392 292.181333 513.365333a51.2 51.2 0 0 0-72.362666 72.362667l194.3552 194.423467a51.2 51.2 0 0 0 72.362666 0l357.5808-357.5808a51.2 51.2 0 0 0-72.362666-72.362667z' /> <path transform='scale(5.12)' d='m 86.029412,154.93568 c -3.073407,-0.66765 -2.487037,-0.13967 -23.825301,-21.45269 -19.05773,-19.03519 -20.065314,-20.08558 -20.833334,-21.71828 -0.745355,-1.58453 -0.807052,-1.90403 -0.807052,-4.17938 0,-2.35552 0.0406,-2.54584 0.924594,-4.33448 1.927121,-3.899267 6.189553,-6.14323 10.238744,-5.390203 3.444849,0.640637 2.864522,0.138851 20.271557,17.528043 L 87.992338,131.36602 120.03784,99.362324 C 149.7576,69.681327 152.1902,67.31222 153.5558,66.719186 c 2.98472,-1.296163 6.32313,-1.066218 9.15575,0.630634 1.67568,1.003798 2.83673,2.331573 3.79621,4.341356 0.67416,1.412119 0.76121,1.843778 0.76611,3.79902 0.007,2.65682 -0.30782,3.788422 -1.57732,5.675434 -0.59215,0.880184 -14.59913,15.053473 -36.33256,36.76393 -38.502615,38.46193 -36.329181,36.43617 -39.775818,37.07331 -1.70277,0.31478 -1.80977,0.31275 -3.55876,-0.0672 z' style='fill:white;stroke-width:0.245098' /> <path transform='scale(5.12)' d='m 85.824922,154.89365 c -0.853893,-0.18534 -2.067128,-0.63077 -2.696079,-0.98984 -0.727424,-0.4153 -8.386095,-7.88889 -21.046744,-20.53814 -18.930306,-18.91327 -19.94267,-19.96914 -20.710784,-21.60096 -0.745943,-1.58472 -0.80759,-1.90365 -0.80759,-4.178 0,-2.35368 0.04079,-2.54492 0.924594,-4.33448 2.452703,-4.966367 8.287149,-6.920247 13.261486,-4.441105 0.981756,0.489294 4.73829,4.102395 17.248815,16.590205 l 15.993718,15.96469 32.045502,-32.003696 c 30.09652,-30.057269 32.13789,-32.04386 33.56463,-32.664083 2.95704,-1.28546 6.27126,-1.048392 9.10908,0.651579 1.6723,1.001772 2.83341,2.32769 3.80175,4.341356 0.70113,1.458009 0.76611,1.801465 0.76611,4.049272 0,2.286545 -0.057,2.574242 -0.82534,4.166666 -0.7849,1.6267 -2.58073,3.466208 -36.64216,37.533316 -39.005327,39.01182 -36.769461,36.92388 -40.223738,37.56244 -1.730464,0.31989 -1.794888,0.31803 -3.76325,-0.10922 z' style='fill:white;stroke-width:0.245098' />
</svg>